
#include <stdio.h>
#include <stdlib.h>

 
 int main(){

     float x,y,z;
     
 printf("Enter Number1 :");
    scanf("%f",&x);
 printf("Enter Number2 :");
    scanf("%f",&y);
   
    printf("\n");
    z = y;
    printf("Your Number1 :%f\n",z);
          
    y = x;
    printf("your Number2 :%f\n",y);
      
    return 0;
}

